<svg id="share" xmlns="http://www.w3.org/2000/svg" viewBox="0 0 27.267 28.925">
  <path id="Path_31" data-name="Path 31" d="M35.89,18.583a5.176,5.176,0,0,0-4.1,2.018l-7.946-4.438a5.188,5.188,0,0,0,.288-1.706,5.075,5.075,0,0,0-.294-1.712l7.94-4.432a5.166,5.166,0,1,0-1.069-3.141,5.049,5.049,0,0,0,.294,1.712l-7.934,4.432a5.166,5.166,0,1,0,.012,6.276l7.94,4.438a5.168,5.168,0,1,0,4.865-3.447Zm0-16.955a3.55,3.55,0,1,1-3.55,3.55A3.553,3.553,0,0,1,35.89,1.628ZM18.977,18.006a3.55,3.55,0,1,1,3.55-3.55A3.553,3.553,0,0,1,18.977,18.006ZM35.89,27.3a3.55,3.55,0,1,1,3.55-3.55A3.553,3.553,0,0,1,35.89,27.3Z" transform="translate(-13.8)"/>
</svg>
